{
  "chall_event": "norzhctf",
  "chall_id": "system_alive_checker",
  "chall_host": {
    "protocol": "ssh",
    "username": "root",
    "hostname": "10.13.37.240",
    "port": 54367,
    "private_key": "./.ssh/id_ed25519"
  },
  "flask": {
    "env": {
      "APP_HOST": "0.0.0.0",
      "APP_PORT": 8000,
      "APP_SECRET_KEY": "secret",
      "DB_HOST": "db",
      "DB_NAME": "db",
      "DB_USER": "user",
      "DB_PASS": "ch4113ng3_p455w0rd_my5q1"
    }
  },
  "worker": {
    "env": {
      "PYTHONUNBUFFERED": "1",
      "DB_HOST": "db",
      "DB_NAME": "db",
      "DB_USER": "user",
      "DB_PASS": "ch4113ng3_p455w0rd_my5q1",
      "WORKER_THREADS": 4,
      "WORKER_INTERVAL": 10,
      "WORKER_PING_COUNT": 4
    }
  },
  "mariadb": {
    "env": {
      "MYSQL_DATABASE": "db",
      "MYSQL_PASSWORD": "ch4113ng3_p455w0rd_my5q1",
      "MYSQL_ROOT_PASSWORD": "r007_ch4113ng3_p455w0rd_my5q1",
      "MYSQL_USER": "user"
    }
  },
  "grafana": {
    "env": {
      "GF_SERVER_ROOT_URL": "https://grafana.reactor.norzh.nuclea",
      "GF_SECURITY_ADMIN_PASSWORD": "admin"
    }
  },
  "network": {
    "domain_name": "norzh.nuclea",
    "dns": [
      "10.13.37.253",
      "8.8.8.8"
    ]
  }
}