{
  "chall_event": "norzhctf",
  "chall_id": "lab",
  "chall_host": {
    "protocol": "ssh",
    "username": "root",
    "hostname": "10.13.37.240",
    "port": 54367,
    "private_key": "./.ssh/id_ed25519"
  },
  "network": {
    "domain_name": "norzh.nuclea",
    "dns": [
      "10.13.37.253",
      "8.8.8.8"
    ]
  }
}